{
  "latest": "5.6",
  "updateurl": "https://gitlab.com/bboyvad/itools/raw/master/Intools.lua",
  "updlist": "
  1. Добавлен инфо-бар продажи лицензий
  2. Добавлена функция быстрого ответа на последнее смс"
}